{
    "0": {
        "0": "The Corning Museum of Glass",
        "1": "National Collection of Fine Arts",
        "2": "St. Paul's School",
        "3": "Museum Boijmans Van Beuningen",
        "4": "Ordrupgaard",
        "5": "Cincinnati Art Museum",
        "6": "High Museum of Art",
        "7": "Newark Museum",
        "8": "American Academy of Arts and Letters",
        "9": "Walker Art Gallery",
        "10": "Mus\u00e9e d'Art Moderne",
        "11": "Belvedere",
        "12": "Coordinating Council of French Relief Societies",
        "13": "Getty Villa",
        "14": "Beijing World Art Museum",
        "15": "William Hayes Ackland Memorial Art Center",
        "16": "Century 21 Exposition",
        "17": "\u00c9cole Nationale des Beaux-Arts",
        "18": "Fondation Beyeler",
        "19": "Society of Arts and Crafts",
        "20": "\u00c9cole Imp\u00e9riale des Beaux-Arts",
        "21": "Palais des Beaux-Arts",
        "22": "Mus\u00e9e des Beaux-Arts de Bordeaux",
        "23": "Worcester Art Museum",
        "24": "The Nelson-Atkins Museum of Art",
        "25": "The Renaissance Society",
        "26": "Buffalo Fine Arts Academy",
        "27": "Jacques Seligmann & Co.",
        "28": "Palazzo Grassi spa",
        "29": "Milwaukee Art Museum",
        "31": "Philadelphia Museum of Art",
        "32": "Staatsgalerie Stuttgart",
        "33": "University of Georgia",
        "34": "Baltimore Museum of Art",
        "35": "E. T. Slattery Co.",
        "36": "Fine Arts Museum of San Francisco",
        "37": "Smith College Museum of Art",
        "38": "Knoedler & Co. Inc.",
        "39": "Grand Rapids Art Museum",
        "40": "The Whitworth Art Gallery",
        "41": "Museum London",
        "42": "National Gallery",
        "43": "Paul Rosenberg & Co.",
        "44": "The Walters Art Museum",
        "46": "Dom-Museum Hildesheim",
        "47": "The Yamaguchi Prefectural Museum of Art",
        "48": "Corcoran Gallery of Art",
        "49": "Pomona College Gallery",
        "50": "Fogg Art Museum\/Harvard University",
        "51": "Mus\u00e9e Jules Cheret",
        "52": "Albright-Knox Art Gallery",
        "53": "Marlborough Gallery",
        "54": "Lincoln Laboratory",
        "55": "Portland Museum of Art",
        "56": "Carnegie Institute",
        "57": "University of Michigan Museum of Art",
        "58": "Virginia Museum of Fine Arts",
        "59": "Akron Art Museum",
        "60": "Ackland Art Museum",
        "61": "Kunsthistorisches Museum Wien",
        "62": "National Gallery of Art",
        "63": "The Dallas Museum of Art",
        "64": "Sterling and Francine Clark Art Institute",
        "65": "Mus\u00e9e Fabre",
        "66": "Fitchburg Art Association",
        "67": "Symphony Hall",
        "68": "Galeries Nationales du Grand Palais",
        "69": "Yale University Art Gallery",
        "70": "Vassar College Art Gallery",
        "71": "Salon",
        "72": "28 Avenue de l'Opera",
        "73": "Manchester Art Gallery",
        "74": "M.H. de Young Memorial Museum",
        "75": "Nagoya City Art Museum",
        "76": "Durand-Ruel [New York]",
        "77": "Galerie national du Jeu de Paume",
        "78": "Rue le Peletier",
        "79": "Norton Museum of Art",
        "80": "Snite Museum",
        "81": "Crystal Bridges Museum of American Art",
        "82": "Royal Academy of Arts",
        "83": "Montgomery Museum of Art",
        "84": "National Gallery of Canada",
        "85": "School of the Museum of Fine Arts",
        "86": "Museum Boymans",
        "87": "Winchester Art Association",
        "88": "Whitney Museum of American Art",
        "89": "Victoria and Albert Museum",
        "90": "Speed Art Museum",
        "91": "Cedar Rapids Museum of Art",
        "92": "The Hyde Collection",
        "93": "Mus\u00e9e des Augustins",
        "94": "Mildred Lane Kemper Art Museum",
        "95": "The Detroit Institute of Arts",
        "96": "Tokyo Metropolitan Art Museum",
        "97": "Natural History Museum of Los Angeles",
        "98": "Farnsworth Art Museum (now Davis Museum and Cultural Center)",
        "99": "Van Gogh Museum",
        "100": "IBM Gallery of Science and Art",
        "101": "Kunsthalle Bern",
        "102": "Cleveland Museum of Art",
        "103": "Albertina",
        "104": "Philbrook Museum of Art",
        "105": "Wadsworth Atheneum Museum of Art",
        "106": "Museo Thyssen-Bornemisza",
        "107": "Dwight Art Memorial",
        "108": "The David and Alfred Smart Museum of Art",
        "109": "Galerie Beaux-Arts (Paris)",
        "110": "Mus\u00e9e des Beaux-Arts de Nancy",
        "111": "Carroll Carstairs Gallery",
        "112": "McLellan Gallery",
        "113": "Columbus Museum of Art",
        "114": "Wildenstein Gallery",
        "115": "Galerie Manzi et Joyant",
        "116": "Soci\u00e9t\u00e9 des Artistes Ind\u00e9pendants",
        "117": "The New York Cultural Center",
        "118": "Tate Britain",
        "119": "Palmer Museum of Art",
        "120": "Mus\u00e9e Marmottan Monet",
        "121": "Durand-Ruel Paris",
        "122": "Otto Gerson Gallery",
        "123": "Harvard University Art Museums",
        "124": "The Art Institute of Chicago",
        "125": "National Gallery of Scotland",
        "126": "Galeries Nationales du Grand Palais (September 23",
        "127": "Minneapolis Institute of Art",
        "128": "Pavillon de la Ville de Paris",
        "129": "Museum of Modern Art",
        "130": "New Gallery",
        "131": "Western Reserve Historical Society",
        "132": "Mead Art Museum",
        "133": "Galerie Georges Petit",
        "134": "Haus der Kunst",
        "135": "The Brooklyn Museum",
        "136": "California Palace of the Legion of Honor",
        "137": "Tate Modern",
        "138": "Munson-Williams-Proctor Institute",
        "139": "Oklahoma City Museum of Art",
        "140": "Dallas Museum for Contemporary Arts",
        "141": "Wildenstein & Co.",
        "142": "Galerie Wertheim",
        "143": "Isetan Department Store",
        "144": "Mus\u00e9e des Arts Decoratifs",
        "145": "City Art Museum of St. Louis",
        "146": "The Museum of Fine Arts",
        "147": "Bunkamura Museum of Art",
        "148": "St\u00e4dtische Kunsthalle D\u00fcsseldorf",
        "149": "Peabody Essex Museum",
        "150": "Kimbell Art Museum",
        "151": "Junior League",
        "152": "National Museum of Western Art",
        "153": "Carnegie Museum of Art",
        "154": "Addison Gallery of American Art",
        "155": "Museum of Art",
        "156": "K\u00fcnsthalle Tubingen",
        "157": "Von der Heydt-Museum",
        "158": "Mus\u00e9e Granet",
        "159": "Kunstverein Hamburg",
        "160": "Harvard Art Museums",
        "161": "Paul Cassirer Gallery",
        "162": "Frederick R. Weisman Art Museum",
        "163": "Otto Wacker Art Gallery",
        "164": "Centre National d'Art et de Culture Georges Pompidou",
        "165": "Stedelijk Museum",
        "166": "Fine Arts Museums of San Francisco",
        "167": "Rhode Island School of Design Museum",
        "168": "Margaret Brown Gallery",
        "169": "Yokohama Museum of Art",
        "170": "Paul Rosenberg Gallery",
        "171": "Bignou Gallery",
        "172": "Galerie Nunes et Fiquet",
        "173": "Graham Gallery",
        "174": "Johnson-Humrickhouse Museum",
        "175": "Museum Folkwang",
        "176": "La Revue Blanche",
        "177": "Allentown Art Museum",
        "178": "Ogunquit Museum of American Art",
        "179": "Kunsthalle der Hypo-Kulturstiftung",
        "180": "Art Gallery",
        "181": "Isabella Stewart Gardner Museum",
        "182": "Fogg Art Museum",
        "183": "Kr\u00f6ller-M\u00fcller Museum (co-organizer) (March 30-July 29",
        "184": "J. Paul Getty Museum",
        "185": "University of Kansas Museum of Art",
        "186": "Century Club",
        "187": "The Cleveland Museum of Art",
        "188": "Arthur Tooth & Sons",
        "189": "Mus\u00e9e des Beaux-Arts de Tours",
        "190": "Saint Louis Art Museum",
        "191": "Kunsthalle Bielefeld",
        "192": "Palais des Beaux Arts de Lille",
        "193": "Albany Institute of History and Art",
        "194": "Mus\u00e9e Royaux des Beaux-Arts",
        "195": "Richard L. Feigen & Co. Inc.",
        "196": "Harvard Art Museums\/Arthur M. Sackler Museum",
        "197": "Grace Horne Galleries",
        "198": "M. Knoedler & Co.",
        "199": "The Marion Koogler McNay Art Museum",
        "200": "Fearon Gallery",
        "201": "Zeitgeist-Gesellschaft",
        "202": "Walker Art Center",
        "203": "University of Pittsburgh",
        "204": "Cooper Hewitt",
        "205": "Duveen Galleries",
        "206": "The Gallery of Modern Art",
        "207": "Princeton University Art Museum",
        "208": "Colby College",
        "209": "Hillwood Museum & Gardens",
        "210": "Seoul Museum of Art",
        "211": "Indianapolis Museum of Art",
        "212": "Buchholz Gallery",
        "213": "The National Museum of Modern Art",
        "214": "Nationalmuseum",
        "215": "Cheekwood Botanical Garden and Museum of Art",
        "216": "Mus\u00e9e des Beaux-Arts de Lyon",
        "217": "The Downtown Gallery",
        "218": "Dallas Museum of Art",
        "219": "Los Angeles County Museum of Art",
        "220": "Museo de Bellas Artes",
        "221": "Rotterdamsche Kunstkring",
        "222": "Art Gallery of Ontario",
        "223": "Seoul Art Center",
        "224": "Kunsthaus Z\u00fcrich",
        "225": "The Toledo Museum of Art",
        "226": "Frances Lehman Loeb Art Center at Vassar College",
        "227": "Mary Harriman Gallery",
        "228": "Taft Museum of Art",
        "229": "Science Museum",
        "230": "Santa Barbara Museum of Art",
        "231": "Dahesh Museum of Art",
        "232": "Colby College Museum of Art",
        "233": "Pennsylvania Museum of Art",
        "234": "Minneapolis Institute of Arts",
        "235": "Dayton Art Institute",
        "236": "Isaac Delgado Museum of Art",
        "237": "Paine Art Center and Gardens",
        "238": "Portland Art Museum",
        "239": "The Frances Lehman Loeb Art Center",
        "240": "Vancouver Art Gallery",
        "241": "University of California at Los Angeles",
        "242": "Shimane Art Museum",
        "243": "Leicester Galleries",
        "244": "Athenaeum Club",
        "245": "Denver Art Museum",
        "246": "Galerie Durand-Ruel",
        "247": "University of Iowa Museum of Art",
        "248": "Bowdoin College Museum of Art",
        "249": "San Diego Museum of Art",
        "250": "Brooklyn Institute of Arts and Sciences Museum",
        "251": "Bridgestone Museum of Art",
        "252": "Busch-Reisinger Museum",
        "253": "The Museum of Modern Art",
        "254": "Art Gallery of New South Wales",
        "255": "Institute of Contemporary Art",
        "256": "Galerie Wildenstein",
        "257": "Phillips Memorial Gallery",
        "258": "Shepherd Gallery",
        "259": "Hokkaido Museum of Modern Art",
        "260": "Mus\u00e9e de la Province de Quebec",
        "261": "Wallraf-Richartz Museum",
        "262": "Mus\u00e9e des Beaux-Arts",
        "263": "The Phillips Collection",
        "264": "University of Iowa",
        "265": "Israel Museum",
        "266": "Speed Memorial Museum",
        "267": "Cleveland Public Library",
        "268": "North Carolina Museum of Art",
        "269": "The Bowes Museum",
        "270": "Academy of Fine Arts",
        "271": "San Francisco Museum of Modern Art",
        "272": "The Metropolitan Museum of Art",
        "273": "Museum of Fine Arts",
        "274": "Hamburger Kunsthalle",
        "275": "Allen Memorial Art Museum",
        "276": "Rosenberg Gallery",
        "277": "Frick Collection",
        "278": "Currier Museum of Art",
        "279": "Detroit Institute of Arts",
        "280": "Unknown venue",
        "281": "Mus\u00e9e des Beaux-Arts de Rouen",
        "282": "Maine State Museum",
        "283": "University of California",
        "284": "Brooklyn Museum of Art",
        "285": "Fondation Louis Vuitton",
        "286": "Montr\u00e9al Museum of Fine Arts",
        "287": "Mus\u00e9e de l'Orangerie",
        "288": "Mus\u00e9e d'Orsay",
        "289": "White House",
        "290": "Bernheim-Jeune",
        "291": "Davison Art Center",
        "292": "Brooklyn Museum",
        "293": "Das St\u00e4del",
        "294": "Mus\u00e9e du Louvre",
        "295": "Schaeffer Galleries",
        "296": "Georgia Museum of Art",
        "297": "The Wallace Collection",
        "298": "National Portrait Gallery",
        "299": "Ancient Orient Museum",
        "300": "Galerie Bernheim Jeune",
        "301": "Rijksmuseum",
        "302": "Galerien Thannhauser"
    }
}